{
  "container": {
    "type": "DOCKER",
    "docker": {
      "image": "mattshax/openfoam_paraview_mesa"
    }
  },
  "id": "openfoamworker",
  "instances": "1",
  "cpus": "0.3",
  "mem": "200",
  "constraints": [["hostname", "CLUSTER", "54.174.126.111"]],
  "uris": [],
  "cmd": "/bin/sh -c 'sudo su;/core/worker.pl http://dev.parallel.works:50100 dockerized /tmp/swiftwork'"
}
