# vtk DataFile Version 2.0
inlet
ASCII
DATASET POLYDATA
POINTS 62 float
-0.04 0 -0.0005 -0.04 0 0.0005 -0.04 0.000313389 0.0005 -0.04 0.000313389
-0.0005 -0.04 0.000659034 0.0005 -0.04 0.000659034 -0.0005 -0.04 0.00104025 0.0005
-0.04 0.00104025 -0.0005 -0.04 0.00146071 0.0005 -0.04 0.00146071 -0.0005 -0.04
0.00192444 0.0005 -0.04 0.00192444 -0.0005 -0.04 0.0024359 0.0005 -0.04 0.0024359
-0.0005 -0.04 0.003 0.0005 -0.04 0.003 -0.0005 -0.04 0.00344061 0.0005
-0.04 0.00344061 -0.0005 -0.04 0.0039546 0.0005 -0.04 0.0039546 -0.0005 -0.04
0.00455418 0.0005 -0.04 0.00455418 -0.0005 -0.04 0.0052536 0.0005 -0.04 0.0052536
-0.0005 -0.04 0.0060695 0.0005 -0.04 0.0060695 -0.0005 -0.04 0.00702128 0.0005
-0.04 0.00702128 -0.0005 -0.04 0.00813155 0.0005 -0.04 0.00813155 -0.0005 -0.04
0.00942671 0.0005 -0.04 0.00942671 -0.0005 -0.04 0.0109376 0.0005 -0.04 0.0109376
-0.0005 -0.04 0.0127 0.0005 -0.04 0.0127 -0.0005 -0.04 0.0144826 0.0005
-0.04 0.0144826 -0.0005 -0.04 0.0160708 0.0005 -0.04 0.0160708 -0.0005 -0.04
0.0174856 0.0005 -0.04 0.0174856 -0.0005 -0.04 0.0187461 0.0005 -0.04 0.0187461
-0.0005 -0.04 0.0198691 0.0005 -0.04 0.0198691 -0.0005 -0.04 0.0208696 0.0005
-0.04 0.0208696 -0.0005 -0.04 0.0217609 0.0005 -0.04 0.0217609 -0.0005 -0.04
0.0225549 0.0005 -0.04 0.0225549 -0.0005 -0.04 0.0232624 0.0005 -0.04 0.0232624
-0.0005 -0.04 0.0238926 0.0005 -0.04 0.0238926 -0.0005 -0.04 0.0244541 0.0005
-0.04 0.0244541 -0.0005 -0.04 0.0249543 0.0005 -0.04 0.0249543 -0.0005 -0.04
0.0254 0.0005 -0.04 0.0254 -0.0005 
POLYGONS 30 150
4 0 1 2 3 4 3 2 4 5 4
5 4 6 7 4 7 6 8 9 4
9 8 10 11 4 11 10 12 13 4
13 12 14 15 4 15 14 16 17 4
17 16 18 19 4 19 18 20 21 4
21 20 22 23 4 23 22 24 25 4
25 24 26 27 4 27 26 28 29 4
29 28 30 31 4 31 30 32 33 4
33 32 34 35 4 35 34 36 37 4
37 36 38 39 4 39 38 40 41 4
41 40 42 43 4 43 42 44 45 4
45 44 46 47 4 47 46 48 49 4
49 48 50 51 4 51 50 52 53 4
53 52 54 55 4 55 54 56 57 4
57 56 58 59 4 59 58 60 61 
CELL_DATA 30
FIELD attributes 6
patchID 1 30 float
0 0 0 0 0 0 0 0 0 0 0
0 0 0 0 0 0 0 0 0 0
0 0 0 0 0 0 0 0 0 
p 1 30 float
0.955844 -1.02871 -1.08558 -1.06971 -1.12234 -1.19992 -1.2721 -1.3288 -1.37683 -1.42695 -1.47826
-1.52973 -1.5802 -1.62834 -1.67242 -1.71018 -1.73841 -1.75135 -1.7474 -1.73042 -1.70356
-1.66899 -1.62834 -1.58263 -1.5314 -1.47402 -1.43834 -1.46586 -1.49068 0.505682 
nut 1 30 float
0.000851986 0.000851986 0.000851986 0.000851986 0.000851986 0.000851986 0.000851986 0.000851986 0.000851986 0.000851986 0.000851986
0.000851986 0.000851986 0.000851986 0.000851986 0.000851986 0.000851986 0.000851986 0.000851986 0.000851986 0.000851986
0.000851986 0.000851986 0.000851986 0.000851986 0.000851986 0.000851986 0.000851986 0.000851986 0.000851986 
k 1 30 float
0.375 0.375 0.375 0.375 0.375 0.375 0.375 0.375 0.375 0.375 0.375
0.375 0.375 0.375 0.375 0.375 0.375 0.375 0.375 0.375 0.375
0.375 0.375 0.375 0.375 0.375 0.375 0.375 0.375 0.375 
epsilon 1 30 float
14.855 14.855 14.855 14.855 14.855 14.855 14.855 14.855 14.855 14.855 14.855
14.855 14.855 14.855 14.855 14.855 14.855 14.855 14.855 14.855 14.855
14.855 14.855 14.855 14.855 14.855 14.855 14.855 14.855 14.855 
U 3 30 float
10 0 0 10 0 0 10 0 0 10 0
0 10 0 0 10 0 0 10 0 0
10 0 0 10 0 0 10 0 0 10
0 0 10 0 0 10 0 0 10 0
0 10 0 0 10 0 0 10 0 0
10 0 0 10 0 0 10 0 0 10
0 0 10 0 0 10 0 0 10 0
0 10 0 0 10 0 0 10 0 0
10 0 0 10 0 0 10 0 0 
POINT_DATA  62
FIELD attributes 5
p 1 62 float
0.955844 0.955844 -0.0316772 -0.0316772 -1.05698 -1.05698 -1.0777 -1.0777 -1.09581 -1.09581 -1.16077
-1.16077 -1.23561 -1.23561 -1.30115 -1.30115 -1.35247 -1.35247 -1.40143 -1.40143 -1.45202
-1.45202 -1.50327 -1.50327 -1.55412 -1.55412 -1.60332 -1.60332 -1.64938 -1.64938 -1.69034
-1.69034 -1.72351 -1.72351 -1.74485 -1.74485 -1.74929 -1.74929 -1.73857 -1.73857 -1.71649
-1.71649 -1.68569 -1.68569 -1.64804 -1.64804 -1.60486 -1.60486 -1.5564 -1.5564 -1.50211
-1.50211 -1.45586 -1.45586 -1.45231 -1.45231 -1.47843 -1.47843 -0.481977 -0.481977 0.505682
0.505682 
nut 1 62 float
0.000851986 0.000851986 0.000851986 0.000851986 0.000851986 0.000851986 0.000851986 0.000851986 0.000851986 0.000851986 0.000851986
0.000851986 0.000851986 0.000851986 0.000851986 0.000851986 0.000851986 0.000851986 0.000851986 0.000851986 0.000851986
0.000851986 0.000851986 0.000851986 0.000851986 0.000851986 0.000851986 0.000851986 0.000851986 0.000851986 0.000851986
0.000851986 0.000851986 0.000851986 0.000851986 0.000851986 0.000851986 0.000851986 0.000851986 0.000851986 0.000851986
0.000851986 0.000851986 0.000851986 0.000851986 0.000851986 0.000851986 0.000851986 0.000851986 0.000851986 0.000851986
0.000851986 0.000851986 0.000851986 0.000851986 0.000851986 0.000851986 0.000851986 0.000851986 0.000851986 0.000851986
0.000851986 
k 1 62 float
0.375 0.375 0.375 0.375 0.375 0.375 0.375 0.375 0.375 0.375 0.375
0.375 0.375 0.375 0.375 0.375 0.375 0.375 0.375 0.375 0.375
0.375 0.375 0.375 0.375 0.375 0.375 0.375 0.375 0.375 0.375
0.375 0.375 0.375 0.375 0.375 0.375 0.375 0.375 0.375 0.375
0.375 0.375 0.375 0.375 0.375 0.375 0.375 0.375 0.375 0.375
0.375 0.375 0.375 0.375 0.375 0.375 0.375 0.375 0.375 0.375
0.375 
epsilon 1 62 float
14.855 14.855 14.855 14.855 14.855 14.855 14.855 14.855 14.855 14.855 14.855
14.855 14.855 14.855 14.855 14.855 14.855 14.855 14.855 14.855 14.855
14.855 14.855 14.855 14.855 14.855 14.855 14.855 14.855 14.855 14.855
14.855 14.855 14.855 14.855 14.855 14.855 14.855 14.855 14.855 14.855
14.855 14.855 14.855 14.855 14.855 14.855 14.855 14.855 14.855 14.855
14.855 14.855 14.855 14.855 14.855 14.855 14.855 14.855 14.855 14.855
14.855 
U 3 62 float
10 0 0 10 0 0 10 0 0 10 0
0 10 0 0 10 0 0 10 0 0
10 0 0 10 0 0 10 0 0 10
0 0 10 0 0 10 0 0 10 0
0 10 0 0 10 0 0 10 0 0
10 0 0 10 0 0 10 0 0 10
0 0 10 0 0 10 0 0 10 0
0 10 0 0 10 0 0 10 0 0
10 0 0 10 0 0 10 0 0 10
0 0 10 0 0 10 0 0 10 0
0 10 0 0 10 0 0 10 0 0
10 0 0 10 0 0 10 0 0 10
0 0 10 0 0 10 0 0 10 0
0 10 0 0 10 0 0 10 0 0
10 0 0 10 0 0 10 0 0 10
0 0 10 0 0 10 0 0 10 0
0 10 0 0 10 0 0 10 0 0
10 0 0 10 0 0 10 0 0 10
0 0 10 0 0 
